<?xml version="1.0"?>
<svg width="256" height="256" xmlns="http://www.w3.org/2000/svg" preserveAspectRatio="xMidYMid meet">

 <metadata id="metadata4">Created by potrace 1.10, written by Peter Selinger 2001-2011image/svg+xml</metadata>
 <g>
  <title>background</title>
  <rect fill="none" id="canvas_background" height="402" width="582" y="-1" x="-1"/>
 </g>
 <g>
  <title>Layer 1</title>
  <rect stroke="#d4d4d4" id="svg_2" height="254.999991" width="254.999991" y="0.500008" x="0.500008" stroke-width="20" fill="none"/>
  <rect id="svg_3" height="209.709094" width="219.000007" y="23.145455" x="18.5" stroke-width="20" fill="#d4d4d4"/>
  <text stroke="#000" transform="matrix(11.755899981299345,0,0,11.755899981299345,-1292.5999172956908,-1306.0378815199922) " font-weight="bold" xml:space="preserve" text-anchor="left" font-family="Helvetica, Arial, sans-serif" font-size="20" id="svg_1" y="128.912793" x="115.280843" stroke-width="0" fill="#eb564b">2</text>
 </g>
</svg>